<svg width="27" height="27" viewBox="0 0 27 27" fill="none" xmlns="http://www.w3.org/2000/svg">
<path d="M26.9313 7.9362C26.8679 6.49902 26.6353 5.51624 26.3024 4.66027C25.9589 3.75147 25.4304 2.94305 24.7434 2.26673C24.0669 1.57984 23.2478 1.04618 22.3547 0.713307C21.4932 0.380431 20.5156 0.147945 19.0781 0.0845401C17.6301 0.0158513 17.1703 0 13.5026 0C9.835 0 9.37522 0.0158513 7.93776 0.0792564C6.50029 0.142661 5.51732 0.375147 4.66119 0.708023C3.7522 1.05147 2.94363 1.57984 2.26718 2.26673C1.58015 2.94305 1.04639 3.76204 0.713447 4.65499C0.380505 5.51624 0.147974 6.49374 0.0845567 7.93092C0.0158544 9.37867 0 9.83836 0 13.5C0 17.1616 0.0158544 17.6266 0.0792719 19.0638C0.142689 20.501 0.37522 21.4838 0.708162 22.3397C1.05167 23.2485 1.58544 24.0569 2.26718 24.7333C2.94363 25.4202 3.76277 25.9538 4.6559 26.2867C5.51732 26.6196 6.49501 26.8521 7.93247 26.9155C9.36994 26.9789 9.82971 26.9947 13.4974 26.9947C17.165 26.9947 17.6248 26.9789 19.0622 26.9155C20.4997 26.8521 21.4827 26.6196 22.3388 26.2867C24.1515 25.584 25.589 24.1521 26.2918 22.3344C26.6248 21.4732 26.8573 20.4957 26.9207 19.0585C26.9841 17.616 27 17.1616 27 13.4947C27 9.82779 26.9947 9.37867 26.9313 7.9362ZM13.5026 20.4376C9.67117 20.4376 6.56371 17.3307 6.56371 13.5C6.56371 9.66928 9.67117 6.56243 13.5026 6.56243C17.3341 6.56243 20.4416 9.66928 20.4416 13.5C20.4416 17.3307 17.3341 20.4376 13.5026 20.4376ZM20.7164 7.90978C19.8233 7.90978 19.0992 7.18591 19.0992 6.29295C19.0992 5.4 19.8233 4.67613 20.7164 4.67613C21.6095 4.67613 22.3335 5.4 22.3335 6.29295C22.3388 7.18591 21.6095 7.90978 20.7164 7.90978Z" fill="white"/>
<path d="M13.5024 18.0018C15.9891 18.0018 18.005 15.9863 18.005 13.5C18.005 11.0138 15.9891 8.99825 13.5024 8.99825C11.0156 8.99825 8.99974 11.0138 8.99974 13.5C8.99974 15.9863 11.0156 18.0018 13.5024 18.0018Z" fill="white"/>
</svg>
