<svg width="79" height="16" viewBox="0 0 79 16" fill="none" xmlns="http://www.w3.org/2000/svg">
<path d="M4 9.00002C35 20.5 43.5 -6.00002 75 9.00002" stroke="#D6BC75" stroke-width="7" stroke-linecap="round" stroke-linejoin="round" stroke-dasharray="1 18"/>
</svg>
